{
  "type": "service_account",
  "project_id": "uberdelhi",
  "private_key_id": "a4b5f871a5b9a818e3b048de2242c4b8751f3418",
  "private_key": "-----BEGIN PRIVATE KEY-----\nMIIEvAIBADANBgkqhkiG9w0BAQEFAASCBKYwggSiAgEAAoIBAQDbfmKeuldfpBxS\ns0ZMO3W3AmKyPFvI5xmsf3HIf2Op2cCGs7tYL4QilQnnMovc7gkZsVrja3jqt/mc\nWcswqEyw2D67J8DRdsMqzMyvUyUtT1HF/aq5ZOawmHmGdg86k9SAkEWNQ44x7+4n\nYokBRy9EyzYc/hi7CD0/UV1KkHx4rDT3n8vyQx5diDTbxH/HYIM3rK0E81EplKx3\ngCxRt6t6KrT0/7RhprP6/86sMrS3eCGT8gmm5hBYKEbJhbTJG1RoPZ9CbqTI+sns\nFDeBzok6nXzBG1jOGtL5xH7m+ik3xBh9Iv4RQB6xInKfkGhXUELeMptYW1Pflk9E\n5J8H1h5JAgMBAAECgf8T/tr66OzDDXzXYXxBxl7EzKFmhpbsCvczu4WZ6cpFqWPa\nqRxbeUnj8rBOh4VyxSE5CSxKLly1m1zdwQjfBlY0ATwTUuISdgqEUbbnRls/wiLr\n3s8nBRQVCQWkgCi/P6/99YmMqCTFqn1iVLgaiFnhLHwSg3HeahvHZ8mkfR8yBN5U\nS8PW5G7wg0LM9UZYzg4Bxhtl8SaE4EkxF5V4TFQc+t+I45ppK060jJeZxe6Mu/Pz\nAjbKyfy7Kvkmt7q+B36VSzdf55TmMhIoyOTrFcZYkGcrxOtcILtQEWs9hOoo/s69\nhovo7XsEuZgY7zVl3rYtsfOnvtHgzIKjTjsP6NECgYEA+vSH5dca/8OhH82TwN2D\ncML/sp8rc+qw6Gt+XznYBGzqVQY1/F+tCI623j5tNHW+EsvK6Noqb8huWM/d5PEd\nJ+rMknAPP2IY84HYrk+7ZFkRCJ19LInJOCziIj9lvYWhvyczDnQo7bBxuDjip3+G\nLv39BUxzuWNDbW2ASFGt27ECgYEA3+fyXZMrj1ysV1Q3DZI0Vxyc0E91g33nnp+f\nndX4+RftLzLG4V8LNk6G6Ua9HDDDgDTIcDtsyn9k55rq75h5/81LlSZwRBQ1bfKK\nSQ0ObBb03oiqMVKNj0ONT9D/Ov1vGO1xitK3ZkidNb2y2EmDb6eMBOjlB051vPVH\n+QEiyhkCgYEAxPeUilMwv7neBsYlx+SUu7ZxVtMTGeIEhAeKolcWMzMBIUbErJaz\nitnosbqxn9EiJEKLugMx95aK9W4BLSYJykDB29XUQd1O1CD/3qB55iL5+ZcSnhhv\nNIYV3ud/hScTcqLjsd5+GUC5oOwVCX5P5SY4pyYAVmuQipy9aQWivaECgYEA36q5\nLobEXdqqgjYrJJBnXpnDgEfP0QGlrYwxC59irZocIijsCNhDwAUjucYjRRTlRp3z\nmEGUhJhL+RyFEcDUJhczKJQUU72IPgOp5h13ybwI8n+827ZmmLVXZWMWgxwFrfYL\nlSy3biKdgMC19l9BP/kz4vevSeQzswWm1vQuh4kCgYBryhKoOEWdJxlwsJNEbNy0\nBVMj8nB/RBS//FcxVZUYTeKPjGVlLmg4a1/hG003BtnjmM1f98krpDaTjDDog3xU\noFyLzz+/RAB39YK6RccWjxzq4tTAcmRsIkU8XWZ8muEtxOU8cXnaTD2YUAl9fq3W\nRLjnm1EuRvjYEygc34pIqQ==\n-----END PRIVATE KEY-----\n",
  "client_email": "icohunt@uberdelhi.iam.gserviceaccount.com",
  "client_id": "116922890050041980484",
  "auth_uri": "https://accounts.google.com/o/oauth2/auth",
  "token_uri": "https://accounts.google.com/o/oauth2/token",
  "auth_provider_x509_cert_url": "https://www.googleapis.com/oauth2/v1/certs",
  "client_x509_cert_url": "https://www.googleapis.com/robot/v1/metadata/x509/icohunt%40uberdelhi.iam.gserviceaccount.com"
}
